1.1393973090181253
1.1591176470588236
1.1477183628665517
1.1437639529691919
1.1393973090181253
1.1394057556303467
1.1404879569030764
1.1398028877171906
1.1401072612768988
1.139388862531135
1.1392790695950603
1.1391946278878438
1.1391946278878438
