1.192357694950231
1.167594615750323
1.1486268853722936
1.1435976117392403
1.13993823406822
1.137816122560625
1.137207836064531
1.1368510433757597
1.1369653415435723
1.136973848372561
1.1369265307515732
1.1368877226091292
